[
  {
    "name": "Тесты со ссылками на ошибки в Jira",
	  "messageRegex": ".*",
    "matchedStatuses": ["unknown"]
  },
  {
    "name": "Пропущенные для выполнения тесты",
	  "messageRegex": ".*",
    "matchedStatuses": ["skipped"]
  },
  {
    "name": "Не найдена реализация шага Specflow",
	  "messageRegex": ".*No matching step definition found for the step.*"
  },
  {
    "name": "Падение из-за таймаута. Смотри скриншот (скорее всего – контроль в документе)",
	  "messageRegex": ".*Timed out after 30 seconds.*"
  },
  {
    "name": "Приложение не было запущено в момент выполнения теста (404 или 502)",
	  "messageRegex": ".*javascript error: angular is not defined*"
  },
  {
    "name": "Ожидаемое значение отличается от реального на странице",
	  "messageRegex": ".*Expected: .*"
  },
  {
    "name": "Проблемы с локаторами",
	  "messageRegex": "(.*no such element: Unable to locate element.*)|(.*Элемент не найден.*)"
  },
  {
    "name": "На клик по нужному элемент ответил другой поверх него (Модальное окно, оверлей, дропдаун и т.д.)",
	  "messageRegex": ".*Other element would receive the click: .*"
  },
  {
    "name": "Неправильно инициализируется переменная для параллельной работы тестов",
	  "messageRegex": ".*Ссылка на объект не указывает на экземпляр объекта.*"
  },
  {
    "name": "Внутренняя ошибка TestRail при попытке отправить результат",
	  "messageRegex": ".*TestRail API returned HTTP 500.*"
  }
]